(;FF[4]GM[1]SZ[7]
C[Save the soldier!]
AB[dd]AW[cd][dc][de]
(;B[ed]C[Correct!]TE[1]
)(;B[ec]
;W[ed]C[Your soldier got captured!]
)(;B[ee]
;W[ed]C[Your soldier got captured!]
)(;B[cc]
;W[ed]C[Your soldier got captured!]
)(;B[ce]
;W[ed]C[Your soldier got captured!]
))
